<?xml version="1.0" encoding="UTF-8"?>
<svg width="47px" height="51px" viewBox="0 0 47 51" version="1.1" xmlns="http://www.w3.org/2000/svg" xmlns:xlink="http://www.w3.org/1999/xlink">
    <!-- Generator: Sketch 63.1 (92452) - https://sketch.com -->
    <title>Group 5</title>
    <desc>Created with Sketch.</desc>
    <defs>
        <path d="M7,0 L32,0 C35.8659932,-7.10171439e-16 39,3.13400675 39,7 L39,32 C39,35.8659932 35.8659932,39 32,39 L25,39 L25,39 L21,43 L17,39 L7,39 C3.13400675,39 4.73447626e-16,35.8659932 0,32 L0,7 C-4.73447626e-16,3.13400675 3.13400675,1.59834986e-15 7,0 Z" id="path-1"></path>
        <filter x="-17.9%" y="-11.6%" width="135.9%" height="132.6%" filterUnits="objectBoundingBox" id="filter-2">
            <feOffset dx="0" dy="2" in="SourceAlpha" result="shadowOffsetOuter1"></feOffset>
            <feGaussianBlur stdDeviation="2" in="shadowOffsetOuter1" result="shadowBlurOuter1"></feGaussianBlur>
            <feColorMatrix values="0 0 0 0 0   0 0 0 0 0   0 0 0 0 0  0 0 0 0.5 0" type="matrix" in="shadowBlurOuter1"></feColorMatrix>
        </filter>
    </defs>
    <g id="Home" stroke="none" stroke-width="1" fill="none" fill-rule="evenodd">
        <g id="3.0-Contact" transform="translate(-1089.000000, -570.000000)">
            <g id="Group-5" transform="translate(1093.000000, 572.000000)">
                <g id="Rectangle">
                    <use fill="black" fill-opacity="1" filter="url(#filter-2)" xlink:href="#path-1"></use>
                    <use fill="#FFFFFF" fill-rule="evenodd" xlink:href="#path-1"></use>
                </g>
                <g id="Group" transform="translate(7.000000, 7.000000)" fill="#227BFF">
                    <circle id="Oval" cx="5.5" cy="5.5" r="5.5"></circle>
                    <circle id="Oval-Copy-2" cx="5.5" cy="20.5" r="5.5"></circle>
                    <circle id="Oval-Copy" cx="20.5" cy="5.5" r="5.5"></circle>
                    <circle id="Oval-Copy-3" cx="20.5" cy="20.5" r="5.5"></circle>
                </g>
            </g>
        </g>
    </g>
</svg>