<?xml version="1.0" encoding="UTF-8"?>
<svg width="687px" height="687px" viewBox="0 0 687 687" version="1.1" xmlns="http://www.w3.org/2000/svg" xmlns:xlink="http://www.w3.org/1999/xlink">
    <!-- Generator: Sketch 63.1 (92452) - https://sketch.com -->
    <title>Cirkel</title>
    <desc>Created with Sketch.</desc>
    <defs>
        <polygon id="path-1" points="0 0 687 0 687 687 0 687"></polygon>
    </defs>
    <g id="Home" stroke="none" stroke-width="1" fill="none" fill-rule="evenodd">
        <g id="0.0-Home" transform="translate(-219.000000, -1978.000000)">
            <g id="Cirkel" transform="translate(219.000000, 1978.000000)">
                <mask id="mask-2" fill="white">
                    <use xlink:href="#path-1"></use>
                </mask>
                <g id="Clip-2"></g>
                <path d="M381.676282,2.11628802 C380.189739,2.11628802 378.906535,3.23563066 378.736757,4.74782901 C378.555134,6.37452801 379.727786,7.83934678 381.35252,8.02096851 L381.459124,8.03281341 C381.569677,8.0446583 381.68023,8.05058075 381.790783,8.05058075 C383.2793,8.05058075 384.56053,6.93123811 384.730308,5.41706562 C384.911931,3.79628906 383.747176,2.33344445 382.128365,2.14787441 C382.09283,2.14392611 382.071114,2.14195197 382.037553,2.13800367 L382.035579,2.13800367 C382.023734,2.13602952 382.015838,2.13602952 382.005967,2.13405537 C381.895414,2.12221047 381.784861,2.11628802 381.676282,2.11628802 L381.676282,2.11628802 Z M422.253174,9.1501819 C420.912719,9.1501819 419.696636,10.0681613 419.374848,11.4303243 C418.997783,13.0214886 419.982889,14.6185754 421.574063,14.9936638 L421.678693,15.0193277 C421.907696,15.0726297 422.136698,15.1002678 422.363727,15.1002678 C423.704182,15.1002678 424.920264,14.1822884 425.242052,12.8201254 C425.619117,11.2329094 424.641908,9.64371922 423.058631,9.25876011 C423.02507,9.25086351 422.983613,9.24099276 422.950052,9.23309617 C422.946104,9.23309617 422.942156,9.23112202 422.938207,9.23112202 C422.709205,9.17781999 422.478228,9.1501819 422.253174,9.1501819 L422.253174,9.1501819 Z M461.675182,21.0602245 C460.472918,21.0602245 459.33975,21.8005305 458.897538,22.9948908 C458.330954,24.5288048 459.114696,26.2324956 460.646644,26.7990764 L460.747326,26.8365853 C461.086882,26.9629308 461.434334,27.0221553 461.775864,27.0221553 C462.980102,27.0221553 464.111295,26.2838235 464.553507,25.0894632 C465.122066,23.5555492 464.338324,21.8518583 462.804401,21.2833034 C462.782686,21.2754068 462.76097,21.2675102 462.73728,21.2596136 C462.717538,21.251717 462.715564,21.2497428 462.695822,21.2418462 C462.358241,21.119449 462.014737,21.0602245 461.675182,21.0602245 L461.675182,21.0602245 Z M499.357954,37.6746648 C498.284011,37.6746648 497.249551,38.2609871 496.72245,39.2796482 C495.974243,40.732622 496.544776,42.5192271 497.997758,43.2694038 L498.092517,43.3187576 C498.526833,43.5418364 498.99076,43.6484405 499.448766,43.6484405 C500.520735,43.6484405 501.557169,43.0640923 502.082296,42.0434571 C502.830502,40.5944316 502.265892,38.8157231 500.822781,38.0615981 C500.783298,38.0418566 500.737892,38.0181668 500.698409,37.9984253 C500.268042,37.7792947 499.810037,37.6746648 499.357954,37.6746648 L499.357954,37.6746648 Z M534.750701,58.730941 C533.803104,58.730941 532.8713,59.1849953 532.298794,60.0259829 C531.380809,61.3802493 531.730236,63.2221306 533.082535,64.14011 L533.171373,64.2013086 C533.680706,64.5487589 534.261109,64.7145874 534.833616,64.7145874 C535.781213,64.7145874 536.713016,64.2605331 537.285523,63.4175714 C538.205482,62.0672533 537.854081,60.225372 536.503755,59.3054184 C536.497833,59.3014701 536.493884,59.299496 536.489936,59.2955477 C536.454401,59.2718579 536.436634,59.260013 536.401099,59.2363232 C535.89374,58.8947954 535.319259,58.730941 534.750701,58.730941 L534.750701,58.730941 Z M567.350011,83.8993701 C566.524812,83.8993701 565.703561,84.2428721 565.117235,84.9121087 C564.041318,86.1439778 564.167664,88.0154714 565.401514,89.0913827 L565.480481,89.1604779 C566.043117,89.6520411 566.736047,89.8909132 567.427003,89.8909132 C568.254176,89.8909132 569.073453,89.5493853 569.659778,88.8781746 C570.733721,87.6502537 570.609349,85.7827085 569.38537,84.7067972 C569.351809,84.6791591 569.322197,84.651521 569.288636,84.6238829 C568.729949,84.136268 568.037018,83.8993701 567.350011,83.8993701 L567.350011,83.8993701 Z M596.689982,112.798941 C595.985206,112.798941 595.276483,113.049658 594.711873,113.558989 C593.493816,114.652668 593.397082,116.526135 594.490767,117.740237 L594.561837,117.821177 C595.146188,118.470672 595.95362,118.800355 596.765,118.800355 C597.469775,118.800355 598.178499,118.549638 598.745083,118.042282 C599.959191,116.946629 600.059873,115.075135 598.964214,113.861034 C598.956318,113.851163 598.948421,113.841292 598.940525,113.831421 C598.916835,113.807732 598.903015,113.789964 598.8813,113.766275 C598.298922,113.124676 597.495439,112.798941 596.689982,112.798941 L596.689982,112.798941 Z M622.350118,145.011135 C621.761818,145.011135 621.167596,145.186834 620.650366,145.550078 C619.313859,146.489773 618.990097,148.337577 619.929797,149.67605 L619.990996,149.762912 C620.567451,150.584159 621.485436,151.02242 622.417239,151.02242 C623.005539,151.02242 623.597787,150.84672 624.116991,150.485451 C625.455472,149.545756 625.77726,147.697952 624.83756,146.359479 L624.809922,146.318022 L624.803999,146.312099 C624.794128,146.29828 624.786232,146.284461 624.776361,146.270642 C624.199906,145.449396 623.281922,145.011135 622.350118,145.011135 L622.350118,145.011135 Z M643.945458,180.077949 C643.473634,180.077949 642.995887,180.190475 642.551701,180.429347 C641.108589,181.20124 640.565695,182.995741 641.337592,184.43687 L641.386946,184.531629 C641.919969,185.528575 642.944559,186.09713 644.000734,186.09713 C644.472559,186.09713 644.950305,185.984603 645.394492,185.745731 C646.833654,184.975813 647.378523,183.189208 646.616497,181.750053 C646.594781,181.71057 646.573065,181.671087 646.553324,181.633578 C646.018326,180.642555 644.999659,180.077949 643.945458,180.077949 L643.945458,180.077949 Z M661.140394,217.497948 C660.783071,217.497948 660.4218,217.563095 660.0704,217.699311 C658.544374,218.289582 657.78827,220.007092 658.378544,221.531135 L658.418027,221.629843 C658.872084,222.804462 659.993407,223.523052 661.179878,223.523052 C661.535227,223.523052 661.896498,223.457905 662.247898,223.321689 C663.769976,222.733392 664.528054,221.023779 663.943702,219.50171 C663.939754,219.489865 663.935806,219.479994 663.931857,219.470123 C663.921986,219.442485 663.910141,219.416821 663.900271,219.391157 C663.446214,218.216539 662.326865,217.497948 661.140394,217.497948 L661.140394,217.497948 Z M673.658545,256.730217 C673.417698,256.730217 673.174876,256.759829 672.93008,256.821028 C671.344829,257.223754 670.385387,258.832686 670.786142,260.417928 L670.811806,260.522558 C671.151362,261.864979 672.357574,262.759269 673.682235,262.759269 C673.921109,262.759269 674.165904,262.729656 674.408726,262.666484 C675.990029,262.267706 676.949471,260.66667 676.556613,259.085377 C676.546742,259.041946 676.532923,258.992592 676.523052,258.949161 C676.177574,257.61661 674.977284,256.730217 673.658545,256.730217 L673.658545,256.730217 Z M681.318287,297.194355 C681.193915,297.194355 681.067569,297.202251 680.941223,297.21607 C679.318463,297.423356 678.169502,298.905942 678.376788,300.528693 L678.388633,300.633323 C678.580127,302.129728 679.855435,303.223406 681.32421,303.223406 C681.448582,303.223406 681.572954,303.21551 681.6993,303.199717 C683.316138,302.994405 684.465099,301.52169 684.265709,299.904862 C684.263735,299.883146 684.263735,299.887094 684.26176,299.865379 C684.257812,299.841689 684.255838,299.819973 684.253864,299.796283 L684.249915,299.776542 C684.058422,298.282111 682.785088,297.194355 681.318287,297.194355 L681.318287,297.194355 Z M684.03868,338.288246 L684.018939,338.288246 C682.384334,338.298117 681.067569,339.632642 681.077385,341.269211 L681.079414,341.375815 C681.089285,343.004489 682.411972,344.319272 684.040654,344.319272 L684.058422,344.319272 C685.693027,344.307427 687.011766,342.974876 686.999921,341.340281 L686.999921,341.229728 C686.99005,339.601055 685.665388,338.288246 684.03868,338.288246 L684.03868,338.288246 Z M681.847362,379.425569 C680.36082,379.425569 679.07959,380.542937 678.907838,382.055135 L678.895993,382.159765 C678.710422,383.78449 679.879124,385.253257 681.503858,385.436853 C681.61836,385.450672 681.730887,385.456595 681.84144,385.456595 C683.327983,385.456595 684.609213,384.3412 684.780965,382.830976 L684.780965,382.829002 C684.784913,382.795441 684.784913,382.795441 684.788861,382.759907 C684.790835,382.748062 684.790835,382.734243 684.79281,382.722398 C684.978381,381.097673 683.809678,379.63088 682.184944,379.44531 C682.072417,379.433465 681.957915,379.425569 681.847362,379.425569 L681.847362,379.425569 Z M674.726566,419.98644 C673.390059,419.98644 672.173977,420.900471 671.850214,422.26066 L671.82455,422.363315 C671.443537,423.95448 672.424695,425.553541 674.015868,425.934551 C674.248819,425.987853 674.479796,426.015491 674.708799,426.015491 C676.039383,426.015491 677.249543,425.109357 677.581202,423.759039 C677.587124,423.737323 677.591073,423.713633 677.596995,423.691918 C677.600943,423.67415 677.604892,423.656383 677.60884,423.636642 C677.989853,422.045477 677.008695,420.448391 675.417522,420.069354 C675.186545,420.014078 674.955569,419.98644 674.726566,419.98644 L674.726566,419.98644 Z M662.73749,459.380588 C661.535227,459.380588 660.404033,460.116946 659.961821,461.309332 L659.924312,461.40804 C659.353779,462.941954 660.131599,464.645645 661.665521,465.218148 C662.007051,465.344493 662.354503,465.405692 662.698007,465.405692 C663.900271,465.405692 665.02949,464.669334 665.473676,463.476948 L665.511185,463.376267 C666.081718,461.844327 665.301924,460.138662 663.769976,459.568133 C663.43042,459.439813 663.07902,459.380588 662.73749,459.380588 L662.73749,459.380588 Z M646.045964,497.025641 C644.97597,497.025641 643.94151,497.608015 643.414409,498.622728 L643.365055,498.719461 C642.610925,500.172435 643.17751,501.95904 644.630492,502.711191 C645.064807,502.938218 645.532683,503.044822 645.990688,503.044822 C647.05476,503.044822 648.083298,502.470345 648.612373,501.463529 C648.638037,501.414175 648.651856,501.388511 648.67752,501.339157 C649.421779,499.890132 648.855195,498.109449 647.406161,497.359272 C646.969872,497.134219 646.50397,497.025641 646.045964,497.025641 L646.045964,497.025641 Z M624.916526,532.374758 C623.970904,532.374758 623.041074,532.826838 622.468567,533.663877 L622.407369,533.752714 C621.485436,535.103032 621.830914,536.946888 623.183214,537.868815 C623.692547,538.21824 624.274924,538.386042 624.849405,538.386042 C625.791079,538.386042 626.716961,537.937911 627.291441,537.106794 C627.315131,537.069285 627.332899,537.043621 627.356588,537.01006 C627.356588,537.008086 627.358563,537.008086 627.358563,537.006112 C628.28247,535.655794 627.935017,533.813913 626.584692,532.890011 C626.073384,532.540586 625.491007,532.374758 624.916526,532.374758 L624.916526,532.374758 Z M599.67886,564.920583 C598.855636,564.920583 598.036359,565.264085 597.450033,565.931347 L597.380938,566.010313 C596.301072,567.240208 596.42347,569.111702 597.653372,570.189587 C598.216008,570.683125 598.912886,570.923971 599.605817,570.923971 C600.427067,570.923971 601.24437,570.586391 601.830695,569.919129 C601.836618,569.911232 601.848463,569.899387 601.856359,569.889517 C601.872153,569.871749 601.887946,569.852008 601.903739,569.836215 C602.983605,568.60632 602.859233,566.734826 601.629331,565.654966 C601.066695,565.163403 600.371791,564.920583 599.67886,564.920583 L599.67886,564.920583 Z M570.71398,594.203139 C570.011179,594.205113 569.304429,594.453856 568.73982,594.961212 L568.658879,595.032282 C567.442796,596.123986 567.338166,597.99548 568.429876,599.21353 C569.016202,599.866973 569.823634,600.200605 570.636988,600.200605 C571.339789,600.200605 572.044564,599.951862 572.609174,599.444505 C572.61707,599.438583 572.6072,599.44648 572.61707,599.440557 C572.634838,599.42279 572.65458,599.405022 572.674321,599.387255 C572.680244,599.379359 572.698011,599.365539 572.707882,599.357643 C573.91212,598.263964 574.008854,596.404316 572.921091,595.18824 C572.33674,594.53677 571.527334,594.203139 570.71398,594.203139 L570.71398,594.203139 Z M538.446329,619.797984 C537.860003,619.797984 537.267755,619.97171 536.752499,620.332979 L536.665636,620.394178 C535.325182,621.331898 534.997471,623.177728 535.935197,624.518175 C536.509678,625.34337 537.429636,625.783605 538.363414,625.783605 C538.945792,625.783605 539.530143,625.613828 540.045399,625.258481 C540.053296,625.250585 540.086856,625.226895 540.096727,625.220973 L540.13621,625.193334 L540.153978,625.18149 C541.48851,624.241794 541.812272,622.401887 540.87652,621.063414 C540.300066,620.240194 539.380107,619.797984 538.446329,619.797984 L538.446329,619.797984 Z M503.333913,641.32016 C502.864063,641.32016 502.38829,641.430712 501.944104,641.665636 L501.851319,641.718938 C500.408208,642.484908 499.859391,644.27941 500.627339,645.722513 C501.160363,646.723406 502.184952,647.293936 503.245076,647.293936 C503.712952,647.293936 504.190699,647.181409 504.632911,646.944511 C504.640807,646.940563 504.648704,646.936615 504.656601,646.932666 C504.676342,646.922796 504.713851,646.903054 504.731619,646.893183 C506.172756,646.123265 506.719598,644.332712 505.95165,642.891583 C505.418627,641.890689 504.394037,641.32016 503.333913,641.32016 L503.333913,641.32016 Z M465.878169,658.43406 C465.524794,658.43406 465.165497,658.497233 464.816071,658.631475 L464.715389,658.668984 C463.189363,659.25728 462.429311,660.970842 463.015636,662.496859 C463.469693,663.673452 464.591016,664.394017 465.779461,664.394017 C466.126913,664.394017 466.482262,664.332818 466.825766,664.202524 C466.847482,664.196602 466.871172,664.186731 466.892887,664.178834 C466.908681,664.170938 466.926448,664.165015 466.944216,664.157119 C468.470241,663.568822 469.232267,661.857235 468.643968,660.331217 C468.189911,659.154624 467.068588,658.43406 465.878169,658.43406 L465.878169,658.43406 Z M426.623965,670.865278 C426.385091,670.865278 426.14227,670.89489 425.901422,670.956089 L425.796791,670.981753 C424.209567,671.378557 423.246176,672.989463 423.644957,674.57273 C423.980564,675.9191 425.18875,676.815364 426.513412,676.815364 C426.748337,676.815364 426.98721,676.787726 427.224109,676.728501 C427.245825,676.724553 427.267541,676.718631 427.289257,676.712708 C427.299128,676.710734 427.308998,676.706786 427.320843,676.704812 C427.330714,676.702837 427.340585,676.698889 427.35243,676.698889 C428.931758,676.294188 429.8912,674.691179 429.494394,673.107912 C429.156812,671.763516 427.948626,670.865278 426.623965,670.865278 L426.623965,670.865278 Z M386.145781,678.438115 C386.023383,678.438115 385.899011,678.446011 385.774639,678.461804 L385.668034,678.475623 C384.045274,678.676987 382.894339,680.155624 383.095703,681.780349 C383.283248,683.278729 384.558556,684.374381 386.03128,684.374381 C386.153678,684.374381 386.276076,684.366485 386.400448,684.350692 C386.434008,684.348718 386.489285,684.340821 386.522846,684.336873 C388.137709,684.127613 389.282722,682.650949 389.079383,681.034121 C388.893812,679.535742 387.61653,678.438115 386.145781,678.438115 L386.145781,678.438115 Z M345.041788,681.077552 L345.027969,681.077552 L344.921365,681.077552 C343.28676,681.085449 341.966047,682.418 341.971949,684.052595 C341.979866,685.683242 343.304527,687 344.93321,687 L344.941106,687 L344.960848,687 L345.055608,687 C346.690212,686.994078 348.008951,685.663501 348.003049,684.026931 C347.995132,682.396284 346.670471,681.077552 345.041788,681.077552 L345.041788,681.077552 Z M303.797631,678.791487 C302.315036,678.791487 301.03578,679.904907 300.86008,681.413158 C300.672535,683.03196 301.827418,684.496779 303.444256,684.692219 C303.475842,684.696168 303.509403,684.700116 303.542964,684.704064 C303.55086,684.706039 303.560731,684.706039 303.568628,684.708013 C303.685103,684.721832 303.799605,684.727754 303.912132,684.727754 C305.394726,684.727754 306.675956,683.614334 306.849682,682.108058 C307.037228,680.483333 305.874447,679.012592 304.249713,678.825048 L304.143109,678.813203 C304.026633,678.799384 303.912132,678.791487 303.797631,678.791487 L303.797631,678.791487 Z M263.256274,671.573998 C261.919767,671.573998 260.707633,672.48408 260.379922,673.840321 C259.994961,675.429511 260.97217,677.028572 262.563343,677.413531 C262.57124,677.415505 262.579137,677.417479 262.587033,677.419454 L262.598878,677.423402 C262.622568,677.429324 262.646258,677.435247 262.667974,677.439195 C262.900925,677.496445 263.13585,677.522109 263.364853,677.522109 C264.703333,677.522109 265.913494,676.612027 266.241204,675.255786 C266.624191,673.664622 265.646982,672.065561 264.057783,671.682576 L263.953152,671.656912 C263.720201,671.599661 263.48725,671.573998 263.256274,671.573998 L263.256274,671.573998 Z M223.895465,659.484307 C222.695175,659.484307 221.565956,660.218691 221.121769,661.405155 C220.547289,662.939069 221.32116,664.644734 222.853108,665.219211 C222.857056,665.219211 222.859031,665.221185 222.862979,665.221185 C222.892591,665.23303 222.924178,665.246849 222.955764,665.258694 C223.297294,665.38504 223.648695,665.446238 223.994173,665.446238 C225.192488,665.446238 226.321708,664.711855 226.767868,663.525391 C227.340375,661.991477 226.56453,660.285812 225.034555,659.711335 L224.933873,659.673826 C224.592343,659.545506 224.238969,659.484307 223.895465,659.484307 L223.895465,659.484307 Z M186.291658,642.70009 C185.223638,642.70009 184.191152,643.28049 183.664051,644.293229 C182.907948,645.744228 183.470583,647.530834 184.919617,648.286933 C184.953178,648.3047 184.984764,648.320493 185.016351,648.336286 C185.45264,648.567262 185.922491,648.673866 186.38247,648.673866 C187.450491,648.673866 188.482976,648.093466 189.010077,647.080727 C189.766181,645.629728 189.203545,643.841149 187.752537,643.085049 L187.657777,643.035696 C187.221488,642.808668 186.753612,642.70009 186.291658,642.70009 L186.291658,642.70009 Z M150.993672,621.485882 C150.050023,621.485882 149.124142,621.934014 148.549661,622.771053 C147.627728,624.115449 147.96531,625.949434 149.301816,626.879258 C149.339325,626.904922 149.368938,626.926638 149.404472,626.948353 C149.917754,627.301726 150.500131,627.469529 151.076586,627.469529 C152.020235,627.469529 152.94809,627.019423 153.522571,626.184357 C154.446478,624.834039 154.104948,622.990184 152.756597,622.066282 L152.66776,622.005083 C152.154478,621.653685 151.572101,621.485882 150.993672,621.485882 L150.993672,621.485882 Z M118.504915,596.171366 C117.683664,596.171366 116.866362,596.51092 116.28201,597.176208 C115.204119,598.40018 115.31862,600.265752 116.538651,601.347585 C116.570238,601.375223 116.609721,601.410758 116.643282,601.438396 C117.203943,601.927985 117.894899,602.166857 118.583881,602.166857 C119.405132,602.166857 120.222434,601.827304 120.806786,601.162015 C121.888626,599.934094 121.768202,598.062601 120.542248,596.982741 L120.461308,596.911672 C119.898672,596.41616 119.199819,596.171366 118.504915,596.171366 L118.504915,596.171366 Z M89.2893158,567.139527 C88.5884889,567.139527 87.8837136,567.388269 87.3191038,567.891678 C86.1010469,568.979434 85.992468,570.845005 87.0743079,572.067003 C87.1039203,572.096615 87.137481,572.136098 87.1651193,572.167685 C87.7494707,572.813232 88.5549282,573.142915 89.3643339,573.142915 C90.0651608,573.142915 90.7699361,572.894172 91.3345459,572.392738 C92.554577,571.303007 92.6611817,569.431514 91.5714452,568.209516 L91.5003754,568.13055 C90.9160239,567.475132 90.104644,567.139527 89.2893158,567.139527 L89.2893158,567.139527 Z M63.7713192,534.812832 C63.1869677,534.812832 62.598668,534.984583 62.0834121,535.343878 C60.7449314,536.275677 60.4112983,538.109662 61.3332312,539.452083 C61.3588953,539.487618 61.3825852,539.521178 61.4082493,539.558687 C61.9847041,540.381907 62.9026886,540.824117 63.8384407,540.824117 C64.4227921,540.824117 65.0130661,540.650392 65.5263477,540.293071 C66.8707509,539.357324 67.2004357,537.513468 66.2646837,536.171047 L66.2054589,536.08221 C65.6290041,535.255042 64.7070712,534.812832 63.7713192,534.812832 L63.7713192,534.812832 Z M42.333912,499.649285 C41.8680102,499.649285 41.3922375,499.759838 40.9519998,499.992787 C39.5069144,500.756783 38.9541495,502.551285 39.7201237,503.994388 C39.735917,504.027948 39.7536845,504.057561 39.7694777,504.089147 L39.7714519,504.091121 C40.302501,505.095963 41.3290644,505.668466 42.3911627,505.668466 C42.8590387,505.668466 43.3328372,505.55594 43.7730749,505.32299 C45.2181603,504.555046 45.7709252,502.764493 45.004951,501.319416 L44.955597,501.224656 C44.4245478,500.221789 43.3960103,499.649285 42.333912,499.649285 L42.333912,499.649285 Z M25.3146757,462.148346 C24.9632751,462.148346 24.603978,462.213493 24.2565257,462.345761 C22.7285256,462.930109 21.9645256,464.641696 22.548877,466.167714 C22.5587479,466.195352 22.5686187,466.221016 22.5804636,466.248654 C22.5844119,466.258524 22.5863861,466.264447 22.5903344,466.276292 C23.0424171,467.450911 24.1637402,468.173449 25.3541589,468.173449 C25.7055594,468.173449 26.0628825,468.110276 26.4123088,467.978008 C27.9383348,467.39366 28.704309,465.680099 28.1199575,464.152107 L28.0804743,464.0534 C27.6303658,462.874833 26.5050944,462.148346 25.3146757,462.148346 L25.3146757,462.148346 Z M12.9781477,422.860801 C12.7432226,422.860801 12.5023751,422.890413 12.2615275,422.949638 C10.6802251,423.342493 9.71288649,424.941554 10.0998219,426.524822 C10.1077186,426.558383 10.1096927,426.566279 10.1195635,426.59984 L10.1274602,426.635374 L10.1294343,426.643271 C10.4650416,427.989641 11.6712536,428.889853 12.9998635,428.889853 C13.2367627,428.889853 13.4776103,428.862215 13.7164837,428.801016 C15.3037086,428.40816 16.2710472,426.801203 15.8762151,425.212013 L15.850551,425.109357 C15.5149437,423.761013 14.3087318,422.860801 12.9781477,422.860801 L12.9781477,422.860801 Z M5.50595079,382.363103 C5.38552701,382.363103 5.26510323,382.370999 5.14270529,382.386792 C3.51994549,382.586182 2.36506169,384.062845 2.56247772,385.685596 C2.56445188,385.689544 2.56445188,385.695467 2.56445188,385.701389 C2.57037436,385.73495 2.57432268,385.774433 2.578271,385.807993 C2.76976456,387.30045 4.04112382,388.394129 5.51187328,388.394129 C5.63229706,388.394129 5.754695,388.386232 5.87709294,388.370439 C7.49985274,388.173024 8.65473654,386.694386 8.45534635,385.071635 L8.44152723,384.965031 C8.25793031,383.464678 6.98064857,382.363103 5.50595079,382.363103 L5.50595079,382.363103 Z M2.96125811,341.257366 L2.95533563,341.257366 C1.3187567,341.259341 -0.00393072686,342.587943 8.77727636e-06,344.222539 L8.77727636e-06,344.254125 L8.77727636e-06,344.325194 L8.77727636e-06,344.333091 C0.00396591452,345.965712 1.32862751,347.286418 2.96125811,347.286418 L2.96718059,347.286418 C4.60375952,347.28247 5.92644695,345.953868 5.92250744,344.319272 L5.92250744,344.212668 C5.91855031,342.578072 4.59388872,341.257366 2.96125811,341.257366 L2.96125811,341.257366 Z M5.32827636,300.131889 C3.84765611,300.131889 2.57037436,301.239386 2.39072577,302.745662 C2.38875161,302.781197 2.38282913,302.816732 2.37888081,302.854241 C2.18738726,304.478965 3.34819354,305.949707 4.9729275,306.141199 C5.09137712,306.155018 5.20785258,306.160941 5.32235388,306.160941 C6.80297414,306.160941 8.08223004,305.053443 8.26187864,303.547167 L8.2737236,303.440563 C8.46521715,301.815838 7.30441087,300.345097 5.6796769,300.153604 C5.56122728,300.137811 5.44475182,300.131889 5.32827636,300.131889 L5.32827636,300.131889 Z M12.6326696,259.602604 C11.3060339,259.602604 10.0998219,260.502816 9.76421466,261.847212 C9.7523697,261.888669 9.74052473,261.939997 9.73065393,261.983428 C9.35161515,263.566696 10.3268504,265.161808 11.910127,265.546768 C12.145052,265.604018 12.3819513,265.631656 12.612928,265.631656 C13.9474604,265.631656 15.1576207,264.723547 15.4873055,263.369281 L15.5129696,263.266625 C15.899905,261.677435 14.926644,260.074426 13.3374449,259.687492 C13.1005456,259.630242 12.8656206,259.602604 12.6326696,259.602604 L12.6326696,259.602604 Z M24.8092906,220.263731 C23.6168978,220.263731 22.4936006,220.990218 22.043492,222.166811 C22.0276987,222.208268 22.0099313,222.253674 21.9961122,222.295131 C21.427554,223.821148 22.1994507,225.522865 23.7254766,226.097343 C24.0689805,226.227636 24.4223552,226.288835 24.7698074,226.288835 C25.9661486,226.288835 27.0933942,225.5584 27.5415286,224.371936 L27.5790376,224.273229 C28.1554924,222.743263 27.3835957,221.03365 25.8536215,220.457198 C25.5101176,220.326904 25.1567429,220.263731 24.8092906,220.263731 L24.8092906,220.263731 Z M41.6745425,182.695671 C40.61047,182.695671 39.5839067,183.270148 39.0528575,184.27499 C39.0390384,184.304602 39.0291676,184.32237 39.0133743,184.351982 C39.0133743,184.351982 39.0133743,184.353956 39.0133743,184.353956 L39.0074518,184.361853 L38.9995552,184.37962 C38.2395035,185.828646 38.800165,187.617225 40.2491987,188.377272 C40.6874623,188.606274 41.1573125,188.714852 41.619266,188.714852 C42.6872867,188.714852 43.7177984,188.136426 44.2468734,187.127636 L44.2962274,187.032877 C45.054305,185.583851 44.4956176,183.793298 43.0465839,183.035224 C42.6083203,182.804249 42.1384701,182.695671 41.6745425,182.695671 L41.6745425,182.695671 Z M62.9638876,147.441313 C62.0241873,147.441313 61.0983061,147.889445 60.5238254,148.722536 C60.5198771,148.728458 60.517903,148.732407 60.5139546,148.738329 C60.4902647,148.773864 60.4764456,148.789657 60.4527557,148.825192 C59.5367453,150.171561 59.878275,152.005546 61.2187299,152.931422 C61.7339857,153.284795 62.3183372,153.454572 62.8967662,153.454572 C63.8384407,153.454572 64.7643219,153.00644 65.3388025,152.173349 L65.4000015,152.084512 C66.3278568,150.738142 65.9883013,148.894287 64.6419239,147.966437 C64.1286422,147.613064 63.5442908,147.441313 62.9638876,147.441313 L62.9638876,147.441313 Z M88.3456672,115.008014 C87.5263906,115.008014 86.7110624,115.345594 86.1267109,116.00496 L86.1168401,116.016805 C86.1010469,116.034572 86.0872277,116.052339 86.0714345,116.068133 C86.0635378,116.078003 86.0516928,116.089848 86.0457704,116.099719 C84.9718271,117.323692 85.0883026,119.189263 86.3103079,120.269122 C86.8729436,120.766608 87.5737705,121.011402 88.2706491,121.011402 C89.0899256,121.011402 89.9052538,120.673823 90.4896053,120.012483 L90.5606751,119.931543 C91.6444891,118.70757 91.5299878,116.834102 90.3040342,115.752269 C89.7413985,115.252809 89.0425458,115.008014 88.3456672,115.008014 L88.3456672,115.008014 Z M117.43492,85.855752 C116.740015,85.855752 116.041163,86.0985724 115.480501,86.5940839 C115.448915,86.621722 115.425225,86.6414635 115.393638,86.6710757 C115.391664,86.6730498 115.38969,86.675024 115.387716,86.675024 C114.16571,87.7608061 114.055157,89.6342738 115.140946,90.8562722 C115.727271,91.5136639 116.538651,91.8492692 117.355953,91.8492692 C118.054806,91.8492692 118.757607,91.6044747 119.322217,91.1030408 L119.401184,91.0319714 C120.625163,89.9442152 120.735716,88.0727217 119.647954,86.8507233 C119.063602,86.1913574 118.250248,85.855752 117.43492,85.855752 L117.43492,85.855752 Z M149.813124,60.4069937 C149.234695,60.4069937 148.648369,60.5767706 148.137062,60.9301433 C148.101527,60.9538331 148.065992,60.9775229 148.030457,61.0031868 C146.695924,61.9369594 146.364266,63.7748924 147.294095,65.1173139 C147.868576,65.9464566 148.792483,66.3906402 149.730209,66.3906402 C150.312586,66.3906402 150.900886,66.2208633 151.414168,65.8635423 L151.503005,65.8023437 C152.847408,64.8705452 153.181041,63.0266898 152.251212,61.6822942 C151.676731,60.8511773 150.752824,60.4069937 149.813124,60.4069937 L149.813124,60.4069937 Z M185.024248,39.0427502 C184.56032,39.0427502 184.092444,39.1513285 183.65418,39.3803298 C183.616671,39.4000713 183.575214,39.4217869 183.535731,39.4435025 C182.098542,40.2094725 181.549725,41.9941034 182.311751,43.4352324 C182.840826,44.4420485 183.869364,45.016526 184.933436,45.016526 C185.399338,45.016526 185.871162,44.9059736 186.3114,44.6749981 L186.40616,44.6256444 C187.853219,43.8616486 188.407958,42.0710952 187.645932,40.6240438 C187.114883,39.6192018 186.08832,39.0427502 185.024248,39.0427502 L185.024248,39.0427502 Z M222.558958,22.1006012 C222.21348,22.1006012 221.860105,22.1617998 221.518576,22.2901195 L221.42579,22.3256542 C221.419868,22.3276283 221.411971,22.3296025 221.406049,22.3335508 C219.878048,22.9139507 219.1101,24.6235639 219.692477,26.1535296 C220.140612,27.3340709 221.265883,28.062532 222.46025,28.062532 C222.809677,28.062532 223.167,27.9993592 223.512478,27.8670912 L223.61316,27.8295824 C225.14116,27.2491825 225.909108,25.537595 225.328705,24.0096035 C224.878597,22.8270881 223.753325,22.1006012 222.558958,22.1006012 L222.558958,22.1006012 Z M261.876336,9.84508244 C261.647333,9.84508244 261.416356,9.87272053 261.183405,9.92799671 C261.139974,9.93786746 261.092594,9.94971235 261.049162,9.9595831 C259.46786,10.354413 258.502496,11.955448 258.893379,13.5406899 C259.227012,14.891008 260.435199,15.7951684 261.767757,15.7951684 C262.000708,15.7951684 262.239581,15.7675303 262.478455,15.7083058 L262.581111,15.6826419 C264.17031,15.2917603 265.139623,13.6867769 264.748739,12.0995609 C264.41708,10.7492428 263.20692,9.84508244 261.876336,9.84508244 L261.876336,9.84508244 Z M302.390054,2.4558417 C302.273579,2.4558417 302.153155,2.4637383 302.032731,2.47755734 L301.993248,2.48347979 C301.959687,2.48742809 301.945868,2.48742809 301.912307,2.49335054 C300.29547,2.69471376 299.144535,4.16545497 299.339976,5.78425738 C299.521599,7.28855913 300.798881,8.39210858 302.277527,8.39210858 C302.394003,8.39210858 302.514426,8.38618613 302.63485,8.37039293 L302.741455,8.35854804 C304.364215,8.16310726 305.523047,6.6864436 305.327605,5.06369289 C305.145982,3.55939115 303.8687,2.4558417 302.390054,2.4558417 L302.390054,2.4558417 Z M343.503918,0 L343.383494,0 C341.752837,0.00592244783 340.434098,1.33057661 340.434098,2.96122392 C340.434098,4.59779367 341.760734,5.92244783 343.395339,5.92244783 L343.503918,5.92244783 C345.138522,5.92244783 346.465158,4.59581952 346.465158,2.96122392 C346.465158,1.32662831 345.138522,0 343.503918,0 Z" id="Fill-1" fill="#227BFF" mask="url(#mask-2)"></path>
            </g>
        </g>
    </g>
</svg>